%YAML 1.1
%TAG !u! tag:unity3d.com,2011:
--- !u!1001 &6207543021985886849
PrefabInstance:
  m_ObjectHideFlags: 0
  serializedVersion: 2
  m_Modification:
    m_TransformParent: {fileID: 4091101494559614483}
    m_Modifications:
    - target: {fileID: 8647679873614908571, guid: efb9e2a2e16145d44833e452536fcf8d,
        type: 3}
      propertyPath: m_LocalPosition.x
      value: 1.09
      objectReference: {fileID: 0}
    - target: {fileID: 8647679873614908571, guid: efb9e2a2e16145d44833e452536fcf8d,
        type: 3}
      propertyPath: m_LocalPosition.y
      value: 0.9
      objectReference: {fileID: 0}
    - target: {fileID: 8647679873614908571, guid: efb9e2a2e16145d44833e452536fcf8d,
        type: 3}
      propertyPath: m_LocalPosition.z
      value: 0
      objectReference: {fileID: 0}
    - target: {fileID: 8647679873614908571, guid: efb9e2a2e16145d44833e452536fcf8d,
        type: 3}
      propertyPath: m_LocalRotation.x
      value: -0
      objectReference: {fileID: 0}
    - target: {fileID: 8647679873614908571, guid: efb9e2a2e16145d44833e452536fcf8d,
        type: 3}
      propertyPath: m_LocalRotation.y
      value: -0
      objectReference: {fileID: 0}
    - target: {fileID: 8647679873614908571, guid: efb9e2a2e16145d44833e452536fcf8d,
        type: 3}
      propertyPath: m_LocalRotation.z
      value: -0
      objectReference: {fileID: 0}
    - target: {fileID: 8647679873614908571, guid: efb9e2a2e16145d44833e452536fcf8d,
        type: 3}
      propertyPath: m_LocalRotation.w
      value: 1
      objectReference: {fileID: 0}
    - target: {fileID: 8647679873614908571, guid: efb9e2a2e16145d44833e452536fcf8d,
        type: 3}
      propertyPath: m_RootOrder
      value: 0
      objectReference: {fileID: 0}
    - target: {fileID: 8647679873614908571, guid: efb9e2a2e16145d44833e452536fcf8d,
        type: 3}
      propertyPath: m_LocalEulerAnglesHint.x
      value: 0
      objectReference: {fileID: 0}
    - target: {fileID: 8647679873614908571, guid: efb9e2a2e16145d44833e452536fcf8d,
        type: 3}
      propertyPath: m_LocalEulerAnglesHint.y
      value: 0
      objectReference: {fileID: 0}
    - target: {fileID: 8647679873614908571, guid: efb9e2a2e16145d44833e452536fcf8d,
        type: 3}
      propertyPath: m_LocalEulerAnglesHint.z
      value: 0
      objectReference: {fileID: 0}
    - target: {fileID: 8647679873614908571, guid: efb9e2a2e16145d44833e452536fcf8d,
        type: 3}
      propertyPath: m_LocalScale.x
      value: 0.76189375
      objectReference: {fileID: 0}
    - target: {fileID: 8647679873614908571, guid: efb9e2a2e16145d44833e452536fcf8d,
        type: 3}
      propertyPath: m_LocalScale.y
      value: 0.76189375
      objectReference: {fileID: 0}
    - target: {fileID: 8647679873614908571, guid: efb9e2a2e16145d44833e452536fcf8d,
        type: 3}
      propertyPath: m_LocalScale.z
      value: 0.76189375
      objectReference: {fileID: 0}
    - target: {fileID: 8647679873614908575, guid: efb9e2a2e16145d44833e452536fcf8d,
        type: 3}
      propertyPath: m_Name
      value: Crow
      objectReference: {fileID: 0}
    m_RemovedComponents: []
  m_SourcePrefab: {fileID: 100100000, guid: efb9e2a2e16145d44833e452536fcf8d, type: 3}
--- !u!1001 &6207543022035039250
PrefabInstance:
  m_ObjectHideFlags: 0
  serializedVersion: 2
  m_Modification:
    m_TransformParent: {fileID: 0}
    m_Modifications:
    - target: {fileID: 7990261360096301569, guid: 722b07429d910684ab4e166faf9fbfb0,
        type: 3}
      propertyPath: m_LocalPosition.x
      value: 3.47
      objectReference: {fileID: 0}
    - target: {fileID: 7990261360096301569, guid: 722b07429d910684ab4e166faf9fbfb0,
        type: 3}
      propertyPath: m_LocalPosition.y
      value: 0.52
      objectReference: {fileID: 0}
    - target: {fileID: 7990261360096301569, guid: 722b07429d910684ab4e166faf9fbfb0,
        type: 3}
      propertyPath: m_LocalPosition.z
      value: 0
      objectReference: {fileID: 0}
    - target: {fileID: 7990261360096301569, guid: 722b07429d910684ab4e166faf9fbfb0,
        type: 3}
      propertyPath: m_LocalRotation.x
      value: -0
      objectReference: {fileID: 0}
    - target: {fileID: 7990261360096301569, guid: 722b07429d910684ab4e166faf9fbfb0,
        type: 3}
      propertyPath: m_LocalRotation.y
      value: -0
      objectReference: {fileID: 0}
    - target: {fileID: 7990261360096301569, guid: 722b07429d910684ab4e166faf9fbfb0,
        type: 3}
      propertyPath: m_LocalRotation.z
      value: -0
      objectReference: {fileID: 0}
    - target: {fileID: 7990261360096301569, guid: 722b07429d910684ab4e166faf9fbfb0,
        type: 3}
      propertyPath: m_LocalRotation.w
      value: 1
      objectReference: {fileID: 0}
    - target: {fileID: 7990261360096301569, guid: 722b07429d910684ab4e166faf9fbfb0,
        type: 3}
      propertyPath: m_RootOrder
      value: 0
      objectReference: {fileID: 0}
    - target: {fileID: 7990261360096301569, guid: 722b07429d910684ab4e166faf9fbfb0,
        type: 3}
      propertyPath: m_LocalEulerAnglesHint.x
      value: 0
      objectReference: {fileID: 0}
    - target: {fileID: 7990261360096301569, guid: 722b07429d910684ab4e166faf9fbfb0,
        type: 3}
      propertyPath: m_LocalEulerAnglesHint.y
      value: 0
      objectReference: {fileID: 0}
    - target: {fileID: 7990261360096301569, guid: 722b07429d910684ab4e166faf9fbfb0,
        type: 3}
      propertyPath: m_LocalEulerAnglesHint.z
      value: 0
      objectReference: {fileID: 0}
    - target: {fileID: 7990261360096301570, guid: 722b07429d910684ab4e166faf9fbfb0,
        type: 3}
      propertyPath: m_Name
      value: EnemyPlatform
      objectReference: {fileID: 0}
    m_RemovedComponents: []
  m_SourcePrefab: {fileID: 100100000, guid: 722b07429d910684ab4e166faf9fbfb0, type: 3}
--- !u!4 &4091101494559614483 stripped
Transform:
  m_CorrespondingSourceObject: {fileID: 7990261360096301569, guid: 722b07429d910684ab4e166faf9fbfb0,
    type: 3}
  m_PrefabInstance: {fileID: 6207543022035039250}
  m_PrefabAsset: {fileID: 0}
